{
    "conne_db_pg": "postgres://master:admin@192.168.0.111:5432/fddb?sslmode=disable&pool_max_conns=50",
    "address_server":"192.168.0.110:4740",
    "certFile":"./key/MyCertificate.crt",
    "keyFile":"./key/MyKey.key"
}